{
  "@class": "com.crossover.atrs.config.AtrsConfig",
  "port": "9090",
  "uploadDirectory": "/tmp/",
  "cassandra": {
    "seeds": [
      "localhost"
    ],
    "policies": {
      "reconnect": {
        "name": "exponential",
        "base_delay": 1000,
        "max_delay": 10000
      }
    }
  }
}